{
  "label": "天賦",
  "mapping": {
    "description": "system.description"
  },
  "entries": {
    "Alchemical Resolve": {
      "name": "Alchemical Resolve",
      "description": "You rapidly apply alchemical vapours which instill your ally with supplemental bravery in the face of horror."
    },
    "Anticipate Harm": {
      "name": "Anticipate Harm",
      "description": "Your keen reflexes and acuity allow you to anticipate imminent danger and react to avoid it."
    },
    "Arcane Archer": {
      "name": "Arcane Archer",
      "description": "<p>Your skill with archery can shape your spellcraft, partially substituting for the somatic gestures of traditional spellcasting. With a ranged weapon equipped you ignore the free-hand requirement for casting spells that use the <strong>Arrow</strong> gesture.</p><p>After performing a <strong>Strike</strong> with a projectile weapon, you may cast a spell using the <strong>Arrow</strong> gesture during the same Turn with Action Cost reduced by 1.</p>"
    },
    "Archery Training": {
      "name": "射手訓練",
      "description": "<p>你受過弓、弩、槍械和投石索等投射武器的教育和培訓。</p>\n<p>當你使用以下分類的遠程武器時，獲得＋１技能加值：<strong>投射</strong> 或 <strong>機關</strong></p>"
    },
    "Armored Efficiency": {
      "name": "著甲效率",
      "description": "<p>你受過穿戴重甲並保持機動的訓練。</p><p>穿著<strong>重型</strong>防具時，你每回合能使用一次免費<strong>移動</strong>行動。</p>"
    },
    "Artful Parry": {
      "name": "Artful Parry",
      "description": "<p>You anticipate dodging an attack, intercepting it to intentionally Parry the strike.</p><p></p>"
    },
    "Assassin": {
      "name": "Assassin",
      "description": "<p>You specialize in bringing death the the unwary. Any Strike or Spell attack against an <strong>Unaware</strong> target becomes <strong>Deadly</strong>.</p><p>An Unaware creature hit by your attack may not alert its allies until its own turn in Combat.</p>"
    },
    "Assess Strength": {
      "name": "Assess Strength",
      "description": "<p>You take a moment to observe a creature which you can see and develop intuition about its areas of strength.</p>\n<p>Perform a <strong>Knowledge Test</strong> using a Skill chosen by the Gamemaster. On a success, you learn which Defense type of Physical, Fortutude, Willpower, or Reflex is highest for the creature. On a Critical Success you learn the two highest defense types.</p>"
    },
    "Backstab": {
      "name": "背刺",
      "description": "<p>你集中狡猾的本能來襲擊受夾擊目標的弱點。你能發現機會並施以致命的打擊。</p>"
    },
    "Battle Focus": {
      "name": "Battle Focus",
      "description": "You find focus and calm within the thrill of battle. When you achieve a <strong>Critical Hit</strong> that deals damage to Health or Morale you gain +1 Focus. This benefit may occur at most once per Round."
    },
    "Beastmaster": {
      "name": "Beastmaster",
      "description": "<p>You have trained your animal companion to aid you in combat. Your companion may participate in encounters as an allied combatant.</p>"
    },
    "Berserker": {
      "name": "Berserker",
      "description": "<p>You revel in the thrill of combat, hurling yourself into the fray with reckless abandon.</p>"
    },
    "Blood Frenzy": {
      "name": "Blood Frenzy",
      "description": "<p>Your battle lust spurs you to feats of heightened action. When you achieve a <strong>Critical Hit</strong> that deals damage to Health you immediately gain +1 Action. This benefit may only happen once per Round.</p>"
    },
    "Blood Magic": {
      "name": "Blood Magic",
      "description": "<p>You rely upon occult techniques to transform physical pain into arcane potential. You cast spells by spending Health instead of Focus. When casting a spell each point of Focus costs 10 points of Health.</p>"
    },
    "Bloodletter": {
      "name": "Bloodletter",
      "description": "<p>Your precision with weapons which deal Slashing or Piercing damage can cause the Bleeding condition on Critical Hits which deal damage to Health.</p><p>The Bleeding effect lasts for 1 round and deals your Dexterity score as additional damage to Health.</p>"
    },
    "Body Block": {
      "name": "Body Block",
      "description": "You lean into an attack which was otherwise defended with your Armor, converting its result into a Block instead."
    },
    "Bull Rush": {
      "name": "Bull Rush",
      "description": "You can use your physical prowess to push past opponents who block your path."
    },
    "Bulwark": {
      "name": "壁壘",
      "description": "<p>你擁有運用<strong>盾牌</strong>來固守陣地的專業知識。 </p><p>你每回合１次能將<strong>防禦</strong>行動的ＡＰ－１。</p>"
    },
    "Cadence": {
      "name": "連流擊",
      "description": "<p>你被訓練以有節奏的精準度進行一系列近戰攻擊。當你使用單手近戰武器連續<strong>打擊</strong>多次時，每次連續攻擊都會獲得疊加<strong>＋１助益</strong>。"
    },
    "Carefree": {
      "name": "Carefree",
      "description": "<p>You are able to compartmentalize and brush off setbacks, providing a remarkable ability to recover from damage to your Morale.</p>\n<p>Your <strong>Madness Threshold</strong> is reduced by 1, making you easier to heal.</p>"
    },
    "Clarify Intent": {
      "name": "Clarify Intent",
      "description": "You use apply your situational awareness and persuasiveness to rapidly communicate a plan of action to an ally."
    },
    "Cleave": {
      "name": "Cleave",
      "description": "This martial technique is a specialized two-handed fighting maneuver which relies upon brute strength to swing your weapon in a wide arc, hitting multiple enemies in its path."
    },
    "Combat Medicine": {
      "name": "Combat Medicine",
      "description": "Your knowledge and skill in Medicine covers the rapid triage, diagnosis, and treatment of wounds."
    },
    "Concussive Blows": {
      "name": "Concussive Blows",
      "description": "<p>Your physical power wielding melee weapons which deal Bludgeoning damage can cause the <strong>Staggered</strong> condition on Critical Hits which deal damage to Health.</p>\n<p>The Staggered effect lasts for 1 round and reduces your target's maximum Action by 1.</p>"
    },
    "Conjurer": {
      "name": "Conjurer",
      "description": "<p>You are a master of Conjuration and the Gesture of Creation to manifest arcane energy as physical form. You can maintain up to 3 such creations simultaneously rather than only one.</p>"
    },
    "Conserve Effort": {
      "name": "Conserve Effort",
      "description": "<p>You find calmness and focus in conserving your effort in battle. When you end your <strong>Turn</strong> with un-spent Action you gain <strong>+1 Focus</strong>.</p>"
    },
    "Counter Evade": {
      "name": "Counter Evade",
      "description": "<p>You are practiced in evasive fighting styles which use an enemy's missed attack to devise an opening to counter-attack.</p>"
    },
    "Counter Riposte": {
      "name": "Counter Riposte",
      "description": "<p>You are expert in translating a parried attack into a swift counter against your exposed enemy.</p>"
    },
    "Counter Spell": {
      "name": "Counter Spell",
      "description": "<p>You can attempt to unravel and negate the spellcraft of other mages.</p>\n<section class=\"construction\">\n<p>Counter-Spell mechanics are preliminary and not implemented in Playtest 1. You may test the <em>intention</em> of this talent by working with your GM, but this process will not be refined or automated until a later Playtest phase.</p>\n</section>"
    },
    "Counter Strike": {
      "name": "Counter Strike",
      "description": "<p>You are trained to transition between defending with your shield and a swift counter-attack.</p>"
    },
    "Defensive Roll": {
      "name": "Defensive Roll",
      "description": "<p>You are a nimble skirmisher, always in movement to stay one step ahead of your enemies in combat.</p>"
    },
    "Dervish": {
      "name": "Dervish",
      "description": "<p>You are specialized in fighting with two weapons. In combat you become a whirlwind of weapons, deadly to any foes who approach.</p>"
    },
    "Dirty Tricks": {
      "name": "Dirty Tricks",
      "description": "You have pouches of sand and dust that you use to temporarily distract or blind an enemy."
    },
    "Disarming Strike": {
      "name": "繳械擊",
      "description": "<p>一種試圖解除對手武裝的武技，能迫使他們扔下手中持握的物體。</p>"
    },
    "Distance Runner": {
      "name": "Distance Runner",
      "description": "You are adept at covering distance quickly. Your <strong>Stride</strong> increases by 1."
    },
    "Diversionist": {
      "name": "Diversionist",
      "description": "<p>You specialize in using subterfuge to distract or trick your opponent during combat.</p>"
    },
    "Dread Lord": {
      "name": "Dread Lord",
      "description": "<p>You exude a terrible presence on the battlefield which tests the morale of nearby enemies that behold you, breaking the resolve of the weak-willed.</p>"
    },
    "Dual Wield": {
      "name": "雙持戰鬥",
      "description": "<p>你擅長同時運用兩種武器進行戰鬥。 你能夠將攻擊組合在一起，並且比使用單一武器更快地進行攻擊。</p>"
    },
    "Dustbinder": {
      "name": "Dustbinder",
      "description": "<p>You are highly skilled in weaving the Rune of Earth. Spells which use this Rune cause the Corroding condition on Critical Hits.</p><p>The Corroding effect lasts for 3 Rounds and deals your Wisdom score as Acid damage to Health each Round.</p>"
    },
    "Evasive Shot": {
      "name": "Evasive Shot",
      "description": "<p>You are an expert at firing shots with ranged weaponry while evading enemy attacks. After performing a ranged weapon attack, you gain your <strong>Stride</strong> in additional free movement.</p>"
    },
    "Executioner's Strike": {
      "name": "Executioner's Strike",
      "description": "<p>You deliver a single decisive strike against a wounded enemy.</p>"
    },
    "Extoll Deeds": {
      "name": "Extoll Deeds",
      "description": "You inspire courage within your allies by extolling the heroic deeds of a companion. You may react by composing a verse, making a quip, or shouting a battle cry when an ally you can see <strong>Incapacitates</strong> or achieves a <strong>Critical Hit</strong> against an enemy creature. The celebration of these heroic deeds restores the Morale of your allies within 6 spaces."
    },
    "Eye of the Storm": {
      "name": "Eye of the Storm",
      "description": "<p>After you Delay your Turn, gain +2 Boons on any Strike or Spell attack against an enemy that you allowed to act before you that Round.</p><p>TODO: Needs automation. For now apply boons manually.</p>"
    },
    "Fan of Arrows": {
      "name": "Fan of Arrows",
      "description": "This difficult ranged weaponry technique allows you to fire a multiple shots with your weapon in a sweeping cone, each targeting a different enemy in the area of effect."
    },
    "Feinting Strike": {
      "name": "佯攻",
      "description": "<p>雙持武技，用主武器進行佯攻，並讓目標暴露在副手武器的攻擊之下。</p>"
    },
    "Ferocious Leap": {
      "name": "Ferocious Leap",
      "description": "You leap powerfully into battle to deliver a punishing blow to a nearby enemy."
    },
    "Finesse Weapon Training": {
      "name": "靈巧武器訓練",
      "description": "<p>你受過靈活、敏捷的武藝方面的教育和培訓。</p>\n<p>當你使用以下分類的近戰武器時，獲得＋１技能加值：<strong>輕型</strong> 或 <strong>平衡</strong></p>"
    },
    "Flurry": {
      "name": "強襲",
      "description": "<p>一種運用兩把武器連續不斷攻擊壓制單個目標的武藝。</p>"
    },
    "Flying Kick": {
      "name": "Flying Kick",
      "description": "An unarmed technique where you launch yourself while running at an enemy in a leaping kick which is empowered to deal additional damage."
    },
    "Focused Anticipation": {
      "name": "Focused Anticipation",
      "description": "Anticipation leads to decisive action. When you have the highest <strong>Initiative</strong> score for a Round of combat, you gain <strong>+1 Focus</strong>.</p>"
    },
    "Fulcrum": {
      "name": "Fulcrum",
      "description": "<p>Balance, positioning, and leverage are your greatest allies in combat. You know how to use a foe's momentum against them and that a small redirection in force can turn the tide of battle.</p>"
    },
    "Gesture: Arrow": {
      "name": "Gesture: Arrow",
      "description": "<p>Hurl a projectile of magical power at a distant target. This might use the Lightning Rune to hurl a lightning bolt, or the Shadow rune to hurl a ball of devouring darkness.</p>\n<p>The Arrow gesture scales using <strong>Intellect</strong> and targets a <strong>single</strong> creature up to a distance of 10 spaces, dealing 10 base damage on a successful attack.</p>"
    },
    "Gesture: Aspect": {
      "name": "Gesture: Aspect",
      "description": "<p>Infuse the essence of a Rune into the self, empowering your own physical form or psyche.</p>\n\n<p>When you assume a certain Aspect, you become more closely attuned to the damage type of the Rune used in your spell. You gain <strong>+2 Resistance</strong> to that damage type, and deal an additional <strong>+2 Damage</strong> whenever dealing damage of that type.</p>\n\n<p>Your Aspect lasts for <strong>6 Rounds</strong>. You may only have one active Aspect, casting another spell using the Aspect gesture replaces the previous effect.</p>"
    },
    "Gesture: Create": {
      "name": "Gesture: Create",
      "description": "<p>Coalesce arcane power into tangible form, conjuring a <strong>Creation</strong> which appears in an adjacent space and joins Combat at Initiative 1.</p>\n<p>Your Creation is a Minion of half your own Level chosen from the Summoned Creatures compendium pack corresponding to the Rune used in the spell.</p>\n<p>The Creation lasts for <strong>10 Rounds</strong>. You may only have one active Creation, casting another spell using the Create gesture replaces your previous Creation.</p>"
    },
    "Gesture: Fan": {
      "name": "Gesture: Fan",
      "description": "<p>Focus the essence of a rune into a sweeping or splintered arc to strike multiple targets in close proximity. If used with Earth, this might hurl a spray of stone in an arc, while using it with Kinesis might carve a slice across multiple foes.</p>\n<p>The Fan gesture scales using <strong>Intellect</strong> and targets a 120 degree cone with distance 1, dealing 6 base damage on a successful attack.</p>"
    },
    "Gesture: Influence": {
      "name": "Gesture: Influence",
      "description": "<p>Intensify an arcane phenomenon at close range. Influence could be used with the Flame rune to set a target ablaze or with the Stasis rune to sap their Morale.</p>\n<p>The Influence gesture is a more powerful evolution of the basic Touch gesture that is learned with any Rune.</p>\n<p>The Influence gesture scales using <strong>Presence</strong> and targets a <strong>single</strong> adjacent creature, dealing 12 base damage on a successful attack.</p>"
    },
    "Gesture: Pulse": {
      "name": "Gesture: Pulse",
      "description": "<p>Emit a burst of Runic power in a circular wave that travels outward, with you at its center. A Pulse of Spirit might be used to bolster Morale for your allies, while a Death pulse might be used to deal Corruption damage to a group of enemies gathered around you.</p>\n<p>The Pulse gesture scales using <strong>Presence</strong> and targets a 360 degree radius with distance 1, dealing 6 base damage on a successful attack.</p>"
    },
    "Gesture: Ray": {
      "name": "Gesture: Ray",
      "description": "<p>Focus the power of a Rune into a single point, expelling its energy into a ranged beam which rapidly travels a short distance to a targeted area. If used with Life this might restore the HP of a distant ally steadily over time, while Frost might emit a beam that freezes a target in place.</p>\n<p>The Ray gesture scales using <strong>Wisdom</strong> and targets a line emanating from the caster at distance 6, dealing 6 base damage on a successful attack.</p>"
    },
    "Gesture: Step": {
      "name": "Gesture: Step",
      "description": "<p>Infuse runic power into a movement, crossing physical and spatial boundaries. Move 4 spaces in a straight line, dealing minor damage to enemies or applying restoration to allies in your path.</p>\n<p>The Step gesture scales with <strong>Dexterity</strong>, targets a line with distance 4, dealing 4 base damage on a successful attack.</p>"
    },
    "Gesture: Strike": {
      "name": "Gesture: Strike",
      "description": "<p>Empower a close-range attack with the essence of a Rune. This rune performs a melee weapon attack targeting the defense and dealing damage of the Rune used in the spell.</p>\n<p>The Strike gesture scales using <strong>Strength</strong> and targets a <strong>single</strong> adjacent creature, dealing 12 base damage on a successful attack.</p>"
    },
    "Gesture: Ward": {
      "name": "Gesture: Ward",
      "description": "<p>Focus the power of a Rune into a protective barrier, shielding yourselves and others from harmful effects. When used with the Kinesis rune the Ward reduces incoming damage from a chosen physical damage type while combination with the Death rune protects against Corruption damage.</p>\n<p>Your Ward provides <strong>+6 Resistance</strong> against the damage type of the Rune used in the spell. The Ward lasts for 1 Round.</p>\n<p>You may only have a single Ward at a time. Casting another spell using the Ward gesture replaces your prior Ward.</p>"
    },
    "Gladiator": {
      "name": "Gladiator",
      "description": "<p>Once per Round, you can make a Reaction which incorporates a Strike attack without spending any Focus.</p>"
    },
    "Hamstring": {
      "name": "Hamstring",
      "description": "<p>You use a slashing weapon to target the legs of an enemy and cripple their movement.</p>"
    },
    "Healer": {
      "name": "Healer",
      "description": "<p>You are unparalleled at manipulating vital arcana to treat injuries. You learn <strong>Rune: Life</strong> if you do not already know it. When healing allies using the Rune of Life you gain <strong>+2 Boons</strong> to your roll.</p>"
    },
    "Heavy Strike": {
      "name": "沉重打擊",
      "description": "<p>你擅長使用重型武器進行懲罰性打擊。</p>"
    },
    "Hold Fast": {
      "name": "Hold Fast",
      "description": "<p>You are a calm anchor in the swirling sea of combat. Your <strong>Engagement</strong> increases by +1, allowing you to simultaneously engage more adjacent foes.</p>"
    },
    "Impetus": {
      "name": "起手優勢",
      "description": "<p>你擅長利用別人思維遲緩的死角。 </p><p>如果你在第一輪的先攻中順序第一，則你的回合獲得＋１<strong>行動</strong>。</p>"
    },
    "Inflection: Compose": {
      "name": "Inflection: Compose",
      "description": "<p>Enhance a spell by taking extra time in its formation, reducing other resource costs in exchange. The Compose inflection reduces the <strong>Focus</strong> cost of a spell by 1 while increasing its <strong>Action</strong> cost by 1 in exchange.</p>"
    },
    "Inflection: Determine": {
      "name": "Inflection: Determine",
      "description": "<p>Enhance a spell to make it more difficult to counter. Any attempt to Counter-Spell this spell is made with +2 Banes.</p>"
    },
    "Inflection: Elude": {
      "name": "Inflection: Elude",
      "description": "<p>Enhance a spell to make it more difficult for an enemy to retaliate against its casting. This spell does not provide any opportunity to make reactions that involve Strike attacks, regardless of the results of the spell.</p>"
    },
    "Inflection: Extend": {
      "name": "Inflection: Extend",
      "description": "<p>Enhance the duration of a spell, increasing the duration of its effect. For spells which are instantaneous, any corresponding status conditions that they cause are increased in duration.</p><section class=\"construction\"><p>Effect duration increases from the Extend inflection are not yet automated in Playtest 1. This inflection is included as an example of the intended direction for the Spellcraft system.</p></section>"
    },
    "Inflection: Negate": {
      "name": "Inflection: Negate",
      "description": "<p>Invert the effect of a spell. An Inverted Life Touch spell which normally heals a target deals Poison damage instead. An Inverted Death Ward spell inflicts vulnerability to Corruption damage upon an adjacent enemy.</p><section class=\"construction\"><p>The effects of the Negate inflection are not yet automated for Playtest 1. This inflection is included as an example of the intended direction for the Spellcraft system.</p></section>"
    },
    "Inflection: Pull": {
      "name": "Inflection: Pull",
      "description": "<p>Empower a spell to attract affected creatures toward the caster. Creatures affected by a spell with the Pull inflection move 1 space closer towards the spellcaster if that destination space is unoccupied.</p>"
    },
    "Inflection: Push": {
      "name": "Inflection: Push",
      "description": "<p>Empower a spell to repel affected creatures away from the caster. Creatures affected by a spell with the Push inflection move 1 space away from the spellcaster if that destination space is unoccupied.</p>"
    },
    "Inflection: Quicken": {
      "name": "Inflection: Quicken",
      "description": "<p>Enhance a spell by hastening the speed with which it can be cast, at the expense of increased Focus. The Quicken inflection reduces the <strong>Action</strong> cost of a spell by 1 while increasing its <strong>Focus</strong> cost by 1 in exchange.</p>"
    },
    "Inflection: Reshape": {
      "name": "Inflection: Reshape",
      "description": "<p>Enhance a Spell by carefully reshaping and controlling its area of effect at the cost of <strong>2 Focus</strong>.</p><p>Offensive spells which use a template target only target enemies within the area. Healing spells which use a template target only target allies within the area.</p><p>Single target spells do not incur any Banes due to intervening creatures.</p>"
    },
    "Inquisitor": {
      "name": "Inquisitor",
      "description": "<p>You are an expert in combat against magic users. You know how to conserve energy and strike at the precise moment to thwart their incantation.</p>"
    },
    "Inspirator": {
      "name": "Inspirator",
      "description": "<p>You are highly skilled in weaving the Rune of Spirit. Spells which use this Rune cause the Inspired condition on Critical Hits.</p><p>The Inspired effect lasts for 1 Round and deals your Presence score as restoration to Morale.</p>"
    },
    "Inspire Heroism": {
      "name": "Inspire Heroism",
      "description": "Your courageous presence inspires your nearby allies to strike with confidence."
    },
    "Intellectual Superiority": {
      "name": "Intellectual Superiority",
      "description": "It is sometimes a marvel how slowly others around you think. You gain <strong>+1 Boon</strong> on any Strike or Spell attack against an enemy lower than you in Initiative order."
    },
    "Intercept": {
      "name": "Intercept",
      "description": "You protect your allies, intercepting blows that might otherwise be directed towards your companions."
    },
    "Intimidator": {
      "name": "Intimidator",
      "description": "You specialize in exerting your intimidating presence to break the morale of your foes."
    },
    "Intuit Weakness": {
      "name": "Intuit Weakness",
      "description": "You calm your mind and study the physiology of your foe, seeking a vulnerability in its defenses. The Gamemaster performs a passive <strong>Knowledge Test</strong> against the enemy. If successful you learn one Damage type that the creature is vulnerable to, if any."
    },
    "Iramancer": {
      "name": "Iramancer",
      "description": "Your feats of arcana are fueled by anger. While Enraged you may still spend Focus and you deal 2 additional damage to all spell attacks."
    },
    "Irrepressible Spirit": {
      "name": "Irrepressible Spirit",
      "description": "Your tenacity gives you an irrepressible spirit which resists the onset of despair. At the start of your turn if you are not Broken you gain 1 Morale."
    },
    "Justiciar": {
      "name": "Justiciar",
      "description": "<p>You are an instrument of justice. Critical Strike attacks also deal the Overflow portion of damage to enemy Morale.</p>"
    },
    "Leg Sweep": {
      "name": "失衡打擊",
      "description": "<p>你知道如何運用武器讓對手失去平衡。</p>"
    },
    "Legerdemain": {
      "name": "Legerdemain",
      "description": "You can silently alter your spellcraft. You can apply Lesser Inflections using only your hands without the need for vocalization."
    },
    "Lesser Regeneration": {
      "name": "Lesser Regeneration",
      "description": "<p>Your prodigious hardiness conveys a supernatural capability to recover from wounds quickly. At the start of your turn if you are not Weakened you gain <strong>+1 Health</strong>.</p>"
    },
    "Lightbringer": {
      "name": "Lightbringer",
      "description": "<p>You are highly skilled in weaving the Rune of Illumination. Spells which use this Rune cause the Irradiated condition on Critical Hits.</p><p>The Irradiated effect lasts for 1 Round and deals your Presence score as Radiant damage to both Health and Morale.</p>"
    },
    "Lunge": {
      "name": "箭步",
      "description": "你敏捷地向前衝去，以出人意料的速度出擊。"
    },
    "Mark Prey": {
      "name": "Mark Prey",
      "description": "You fire a special shot which deals reduced damage, but explodes in luminous powder clearly marking your target."
    },
    "Martial Artist": {
      "name": "Martial Artist",
      "description": "You have honed your body into a dangerous weapon. Your bare fists are treated as weapons of Fine quality, increasing their damage by +1."
    },
    "Martial Weapon Training": {
      "name": "軍武訓練",
      "description": "<p>你受過兵器的教育與訓練，還結合了體力與武藝的訓練。</p>\n<p>You gain a +1 Skill bonus to attacks using melee weapons in the <strong>Simple</strong>, <strong>Heavy</strong>, or <strong>Balanced</strong> categories.</p>"
    },
    "Mender": {
      "name": "Mender",
      "description": "<p>You are highly skilled in weaving the Rune of Life. Spells which use this Rune cause the Mending condition on Critical Hits.</p><p>The Mending effect lasts for 1 Round and deals your Wisdom score as restoration to Health.</p>"
    },
    "Mental Fortress": {
      "name": "Mental Fortress",
      "description": "Your strong will makes you exceedingly difficult to influence. You gain +1 to your Willpower defense and +5 Psychic resistance."
    },
    "Mesmer": {
      "name": "Mesmer",
      "description": "<p>You are highly skilled in weaving the Rune of Control. Spells which use this Rune cause the Confusion condition on Critical Hits.</p><p>The Confusion effect lasts for 1 Round, deals half your Intellect score as Psychic damage to Morale, and applies the Disoriented condition.</p>"
    },
    "Mnemonic Realization": {
      "name": "Mnemonic Realization",
      "description": "<p>Your sharpened mind is full of secrets and techniques to remember them. Once per Day you may focus your thoughts and attempt to recall a word that sparks your memory.</p>\n<p>The Gamemaster must provide you with a one-word clue that is appropriate for your direction of inquiry. It is left to Gamemaster discretion how direct or vague to be with the clue they provide.</p>"
    },
    "Monk": {
      "name": "Monk",
      "description": "<p>You balance monastic discipline with expertise in martial arts, balancing attack and defense in harmony.</p><p>While Unarmored, you gain a +2 bonus to your Reflex and Willpower defenses.</p><p>While Unarmed you can use the Double Punch action.</p>"
    },
    "Necromancer": {
      "name": "Necromancer",
      "description": "<p>You are highly skilled in weaving the Rune of Death. Spells which use this Rune cause the Corrupted condition on Critical Hits.</p><p>The Corrupted effect lasts for 3 Rounds and deals your Intellect score as Corruption damage to Health each Round.</p>"
    },
    "Nosferatu": {
      "name": "Nosferatu",
      "description": "<p>You are afflicted with a rare blood mutation which allows your wounds to rapidly heal through hematophagy.</p><p>You can restore your Health by biting a living target. This attack is made with a Superior Natural weapon which scales using Strength and deals Piercing damage.</p><p>Your vulnerability to Radiant damage increases by 10.</p>"
    },
    "Operator": {
      "name": "Operator",
      "description": "<p>You have ice in your veins and remain cool under pressure. Your physical toughness and mental acuity allow you to hone the danger of your situation to achieve the greatest results when the stakes are highest.</p><p>While in combat and not Incapacitated, you gain +1 Boon to all checks when you have less than 50% of your maximum Health remaining. You gain +2 Boons to all checks when you have less than 25% of your maximum Health remaining.</p>"
    },
    "Opportunist": {
      "name": "Opportunist",
      "description": "<p>You sieze any opportunity you can to capitalize on an enemy who turns their back on you. You may make a <strong>Disengagement Attack</strong> even if you are otherwise <strong>Fully Engaged</strong>, but you do so without the 2 Boons that would ordinarily apply to such an attack.</p>"
    },
    "Opportunistic Spellcraft": {
      "name": "Opportunistic Spellcraft",
      "description": "<p>Your quick thinking can weave magic to exploit brief windows of opportunity. You may make a <strong>Disengagement Attack</strong> using the <strong>Touch</strong> Gesture instead of a melee weapon attack.</p>"
    },
    "Overwatch": {
      "name": "Overwatch",
      "description": "<p>You are an expert in combat against magic users. You know how to conserve energy and strike at the precise moment to thwart their incantation.</p>"
    },
    "Patient Deflection": {
      "name": "Patient Deflection",
      "description": "Your expertise with martial arts allows you to dodge or deflect blows as effectively as a heavily armored fighter. While unarmed, half your Wisdom score contributes to your Parry defense."
    },
    "Penetrating Shot": {
      "name": "Penetrating Shot",
      "description": "You load special ammunition which deals less damage but penetrates directly through a line of targets."
    },
    "Perspicacity": {
      "name": "Perspicacity",
      "description": "<p>You have heightened insight into aspects of your surroundings. You gain +2 Boons to any <strong>Awareness</strong> skill test which does not rely upon eyesight.</p>"
    },
    "Pinning Shot": {
      "name": "Pinning Shot",
      "description": "You fire a tactically placed shot to pin your target against a nearby surface."
    },
    "Pistoleer": {
      "name": "Pistoleer",
      "description": "<p>Your familiarity with mechanical firearms is unmatched. You can perform the Reload action for free once per Round.</p>"
    },
    "Planned Defense": {
      "name": "防禦策略",
      "description": "<p>你運用強大的戰場判斷力來準備防禦敵人的攻擊。</p><p>任何<strong>先攻</strong>順序在你之後的敵人，他們對你進行法術或武器攻擊時承受＋１負贅。</p>"
    },
    "Poisoner": {
      "name": "Poisoner",
      "description": "<p>You can apply Poison to weapons which deal Slashing or Piercing damage. You deal an additional +2 damage whenever you deal Poison damage and your Strikes cause the <strong>Poisoned</strong> condition on Critical Strikes which deal damage to Health.</p>"
    },
    "Powerful Physique": {
      "name": "Powerful Physique",
      "description": "You can wield weapons with the Slow trait and wear Armor with the Bulky trait without suffering Banes to your Initiative rolls."
    },
    "Practiced Trigonometry": {
      "name": "熟悉三角函數",
      "description": "<p>你的敏捷智慧使你能夠應用數學原理來計算投射軌跡。</p>\n<p>當你使用以下分類的遠程武器時，獲得＋１技能加值：<strong>機關</strong>"
    },
    "Precision Shot": {
      "name": "Precision Shot",
      "description": "You take time to steady your aim and target the weakest point of a foe. You may only get one shot, but you make it count."
    },
    "Preparedness": {
      "name": "Preparedness",
      "description": "You seem to always be prepared for the moment at hand. You may sacrifice your free movement for the Round to instead equip an Item from your inventory without spending any Action points."
    },
    "Preternatural Instinct": {
      "name": "Preternatural Instinct",
      "description": "Your quickness of mind and body are equally impressive. You gain +2 Boons to all Initiative checks."
    },
    "Provocateur": {
      "name": "Provocateur",
      "description": "You specialize in barbed repartee crafted to highlight your opponent's shortcomings. In combat you can launch quips which provoke your foes."
    },
    "Pyromancer": {
      "name": "Pyromancer",
      "description": "<p>You are highly skilled in weaving the Rune of Flame. Spells which use this Rune cause Burning on Critical Hits.</p><p>The Burning effect lasts for 1 Round and deals your Intellect score as Fire damage to both Health and Morale.</p>"
    },
    "Rallying Cry": {
      "name": "Rallying Cry",
      "description": "You are a battlefield leader, using your presence and voice to harden the resolve of your allies."
    },
    "Rapid Reload": {
      "name": "Rapid Reload",
      "description": "You focus deeply and calm your nerves to reload your mechanical weapon with exceptional haste."
    },
    "Recognize Spellcraft": {
      "name": "Recognize Spellcraft",
      "description": "You can interpret the arcane incantations of others to discern the nature of their spellcraft. When an enemy within 10 spaces that you can see and hear begins casting a spell, you can identify its Rune if you have mastered that Rune."
    },
    "Resilient": {
      "name": "Resilient",
      "description": "<p>Your body responds eagerly to healing, demonstrating a remarkable ability to recover from wounds.</p>\n<p>Your <strong>Wounds Threshold</strong> is reduced by 1, making you easier to heal.</p>"
    },
    "Rimecaller": {
      "name": "Rimecaller",
      "description": "<p>You are highly skilled in weaving the Rune of Frost. Spells which use this Rune cause the Chilled condition on Critical Hits.</p><p>The Chilled effect lasts for 1 Round, deals half your Wisdom score as Frost damage to Health, and applies the Slowed condition.</p>"
    },
    "Rune: Control": {
      "name": "Rune: Control",
      "description": "<p>The orderly force of discipline and the mind. The Control rune governs thought, logic and reason. It is opposed by the chaotic rune of Spirit.</p>\n<p>The Control rune scales using <strong>Intellect</strong>, targets <strong>Willpower</strong>, and deals <strong>Psychic</strong> damage to <strong>Morale</strong>.</p>"
    },
    "Rune: Death": {
      "name": "Rune: Death",
      "description": "<p>The orderly force of destruction, responsible for the decay of all matter. The Death rune governs decay and destruction. It is opposed by the chaotic rune of Life.</p>\n<p>The Death rune scales using <strong>Intellect</strong>, targets <strong>Fortitude</strong>, and deals <strong>Corruption</strong> damage to <strong>Health</strong>.</p>"
    },
    "Rune: Earth": {
      "name": "Rune: Earth",
      "description": "<p>The orderly force of elemental earth, responsible for physical matter. The Earth rune governs health and matters relating to biological growth. It is opposed by the chaotic rune of Lightning.</p>\n<p>The Earth rune scales using <strong>Wisdom</strong>, targets <strong>Reflex</strong>, and deals <strong>Acid</strong> damage to <strong>Health</strong>.</p>"
    },
    "Rune: Flame": {
      "name": "Rune: Flame",
      "description": "<p>The chaotic force of elemental, thermal energy. The Flame rune governs fire and heat. It is opposed by the orderly rune of Frost.</p>\n<p>The Flame rune scales using <strong>Intellect</strong>, targets <strong>Reflex</strong>, and deals <strong>Fire</strong> damage to <strong>Health</strong>.</p>"
    },
    "Rune: Frost": {
      "name": "Rune: Frost",
      "description": "<p>The orderly force of elemental, thermal energy. The Frost rune governs sources of ice and cold. It is opposed by the chaotic rune of Flame.</p>\n<p>The Frost rune scales using <strong>Wisdom</strong>, targets <strong>Fortitude</strong>, and deals <strong>Cold</strong> damage to <strong>Health</strong>.</p>"
    },
    "Rune: Illumination": {
      "name": "Rune: Illumination",
      "description": "<p>The chaotic force of light and positive energy. The Illumination rune governs light and all of its properties. It is opposed by the orderly rune of Shadow.</p>\n<p>The Illumination rune scales using <strong>Presence</strong>, targets <strong>Willpower</strong>, and deals <strong>Radiant</strong> damage to <strong>Health</strong>.</p>"
    },
    "Rune: Kinesis": {
      "name": "Rune: Kinesis",
      "description": "<p>The chaotic force of space and physical movement. The Kinesis rune governs all things related to the act of movement and physicality. It is opposed by the orderly rune of Stasis.</p>\n<p>The Kinesis rune scales using <strong>Presence</strong>, targets <strong>Physical</strong> defense, and deals <strong>Bludgeoning</strong>, <strong>Piercing</strong>, or <strong>Slashing</strong> damage to <strong>Health</strong>.</p>"
    },
    "Rune: Life": {
      "name": "Rune: Life",
      "description": "<p>The chaotic force of creation, responsible for all living matter. The Life rune governs health and matters relating to biological growth. It is opposed by the orderly rune of Death.</p>\n<p>The Life rune scales using <strong>Wisdom</strong> and provides <strong>Restoration</strong> of <strong>Health</strong>.</p>"
    },
    "Rune: Lightning": {
      "name": "Rune: Lightning",
      "description": "<p>The chaotic force of raw, electrical energy. The Lightning rune governs sources of electrical energy and electrical discharge. It is opposed by the orderly rune of Earth.</p>\n<p>The Lightning rune scales using <strong>Intellect</strong>, targets <strong>Reflex</strong>, and deals <strong>Electrical</strong> damage to <strong>Health</strong>.</p>"
    },
    "Rune: Shadow": {
      "name": "Rune: Shadow",
      "description": "<p>The orderly force of darkness and negative energy. The Shadow rune governs darkness and all of its properties. It is opposed by the chaotic rune of Illumination.</p>\n<p>The Shadow rune scales using <strong>Presence</strong>, targets <strong>Fortitude</strong>, and deals <strong>Void</strong> damage to <strong>Morale</strong>.</p>"
    },
    "Rune: Spirit": {
      "name": "Rune: Spirit",
      "description": "<p>The chaotic force of emotion and willfulness. The Spirit rune governs matters related to emotional well-being as well as the soul. It is opposed by the orderly rune of Control.</p>\n<p>The Spirit rune scales using <strong>Presence</strong> and provides <strong>Restoration</strong> of <strong>Morale</strong>.</p>"
    },
    "Rune: Stasis": {
      "name": "Rune: Stasis",
      "description": "<p>The orderly force of immutability and potential energy. The Stasis rune governs all things related to permanence and resistance to change. It is opposed by the chaotic rune of Kinesis.</p>\n<p>The Stasis rune scales using <strong>Wisdom</strong>, targets <strong>Physical</strong> defense, and deals <strong>Bludgeoning</strong>, <strong>Piercing</strong>, or <strong>Slashing</strong> damage to <strong>Morale</strong>.</p>"
    },
    "Runewarden": {
      "name": "Runewarden",
      "description": "<p>Your mastery of the arcane makes you more resilient to elemental and spiritual harm. You gain a bonus to <strong>Resistance</strong> equal to half your Wisdom for each Elemental or Spiritual damage type where you know the Arcane Rune attuned to that damage type.</p><p>When you use the <strong>Ward</strong> gesture, the Resistance provided by your Ward also increases by half your Wisdom.</p>"
    },
    "Ruthless Momentum": {
      "name": "Ruthless Momentum",
      "description": "You relish the carnage you can cause with a two-handed weapon. After defeating a foe, you continue your attack with ruthless momentum, moving to strike another enemy at reduced cost."
    },
    "Safecracker": {
      "name": "Safecracker",
      "description": "You are skilled in the arts of disarming traps and picking locks. You gain +1 Boon on Crafting checks to disable a device or open a lock."
    },
    "Seasoned Veteran": {
      "name": "Seasoned Veteran",
      "description": "<p>You battlefield experience makes you accustomed to engaging multiple foes. Your <strong>Engagement</strong> increases by +1, allowing you to simultaneously engage more adjacent foes.</p>"
    },
    "Second Wind": {
      "name": "回氣",
      "description": "你的身體素質使你能夠超越傳統的極限。"
    },
    "Shapeshifter": {
      "name": "Shapeshifter",
      "description": "<p>You possess supernatural ability to transform your body into the shapes of beasts.</p><p>You undergo a transformation where you assume the form of a beast that you are familiar with and which is half your level or less. While transformed you have the exact attributes and abilities of the chosen beast.</p><p>Your equipment is magically incorporated into the form that you take, however you gain no benefit from that equipment while transformed.</p><p>If your bestial form becomes Incapacitated you revert back to your normal form with any excess damage becoming Wounds. If your Morale is Broken while in beast form your transformation ends and any excess damage becomes Madness.</p>"
    },
    "Shield Bash": {
      "name": "盾牌猛擊",
      "description": "你擅長用盾牌戰鬥，用它猛擊敵人並使其失去平衡。"
    },
    "Shield Charge": {
      "name": "Shield Charge",
      "description": "A defensive technique in which you drive forward, slamming and pushing foes out of your path. You charge up to 6 spaces in a straight line and perform an offhand shield <strong>Strike</strong> against each successive foe along your path."
    },
    "Shield Training": {
      "name": "盾牌訓練",
      "description": "<p>你受過運用盾牌進行防禦與攻擊的技術訓練。</p>\n<p>所有<strong>遠程</strong>武器攻擊對抗你時承受＋１負贅，而當你使用盾牌進行攻擊時獲得＋１技能加值</p>"
    },
    "Shield Ward": {
      "name": "Shield Ward",
      "description": "<p>You have mastered a specialized technique to incorporate a physical shield into the <strong>Ward</strong> gesture. You may ignore the free-hand requirement for spells using the Ward gesture while you have a <strong>Shield</strong> equipped.</p>"
    },
    "Skirmisher": {
      "name": "Skirmisher",
      "description": "<p>You are adept at entering and exiting the fray. When moving out of the <strong>Engagement</strong> radius of an enemy, that enemy has 2 Banes to any <strong>Disengagement Strike</strong> against you."
    },
    "Snakeblood": {
      "name": "Snakeblood",
      "description": "Your supernatural toughness makes you resistant to venoms and toxins. You gain +5 Resistance to Poison damage."
    },
    "Soothe": {
      "name": "Soothe",
      "description": "You administer a soothing Performance which rallies your allies, restoring Morale."
    },
    "Spellblade": {
      "name": "Spellblade",
      "description": "<p>You are an arcane warrior who can weave together Strike and Spell relying on both martial and arcane techniques in battle. The physical strikes of your weaponry partially substitute for the somatic gestures of traditional spellcraft.</p><p>After performing a <strong>Strike</strong> attack, the cost of the next Spell you cast during the same Turn is reduced by <strong>1 Action</strong>.</p>"
    },
    "Steadfast": {
      "name": "Steadfast",
      "description": "Your patient resolve allows you to endure psychologically grueling ordeals with steadfast determination."
    },
    "Still Lake": {
      "name": "Still Lake",
      "description": "<p>Your life experiences provide serenity that allows you to resist the attempted manipulation of others.</p><p><strong>Skill Attacks</strong> against you from any of the <strong>Social</strong> skills are made with <strong>2 Banes</strong>.</p>"
    },
    "Strategic Repositioning": {
      "name": "Strategic Repositioning",
      "description": "<p>You are always thinking ahead about where to position yourself should danger loom. Before <strong>Turn 1</strong> of a Combat encounter, provided that you are not Unaware, you may immediately move <strong>1 Space</strong> in any permitted direction.</p><p>If multiple combatants have this feature, repositioning occurs in reverse order of Initiative.</p>"
    },
    "Strike First": {
      "name": "先發制人",
      "description": "<p>先攻擊再提問。</p><p>你對<strong>先攻</strong>比你低的敵人進行的任何<strong>打擊</strong>或<strong>法術</strong>攻擊獲得<strong>＋１助益</strong>。</p>"
    },
    "Strong Grip": {
      "name": "Strong Grip",
      "description": "Your grasp of your weaponry is firm and unyielding. You can perform Actions which require a free hand while wielding a two-handed weapon. Attempts to Disarm you are made with +2 Banes."
    },
    "Stunning Strike": {
      "name": "Stunning Strike",
      "description": "An challenging unarmed technique which targets vital pressure points on the bodies of your adversaries. You unleash a debilitating strike which, if successful, leaves your enemy Stunned."
    },
    "Subtle Extrication": {
      "name": "Subtle Extrication",
      "description": "<p>You understand how to move away from an opponent without exposing yourself to the worst attacks in return. Any <strong>Disengagement Attack</strong> against you is performed without the 2 Boons that would ordinarily apply to such an attack.</p>"
    },
    "Sundering Strike": {
      "name": "Sundering Strike",
      "description": "<p>You know a martial technique to exploit the weakest points of an enemy's defenses, exposing them to further harm.</p>"
    },
    "Surgeweaver": {
      "name": "Surgeweaver",
      "description": "<p>You are highly skilled in weaving the Rune of Lightning. Spells which use this Rune cause the Shocked condition on Critical Hits.</p><p>The Shocked effect lasts for 1 Round, deals half your Intellect score as Lightning damage to Morale, and applies the Staggered condition.</p>"
    },
    "Swashbuckler": {
      "name": "Swashbuckler",
      "description": "<p>Your bravado inspires your allies and cowes your enemies. When you Dodge or Parry a Strike, the attacker loses Morale equal to your Presence attribute. When you achieve a Critical Hit, all nearby allies who can see you gain Morale equal to your Presence attribute.</p>"
    },
    "Swipe": {
      "name": "Swipe",
      "description": "You perform a broad swipe with your weapon, hitting two adjacent targets within your weapon range."
    },
    "Tactician": {
      "name": "Tactician",
      "description": "<p>You are a cunning battlefield tactician, able to organize and direct your allies to act with increased effectiveness.</p>"
    },
    "Testudo": {
      "name": "堅守",
      "description": "<p>你擅長運用盾牌來採取防禦姿勢。</p><p>當你持握盾牌時，你會獲得<strong>受保護</strong>狀態的雙倍好處來對抗<strong>武器攻擊</strong>。</p>"
    },
    "Theory of Armaments": {
      "name": "武器學",
      "description": "<p>戰鬥理論和物理學是你需要學習的內容。</p><p>當你使用以下分類的武器時，獲得＋１技能加值：<strong>平衡</strong> 或 <strong>投射</strong>。</p>"
    },
    "Thick Skin": {
      "name": "厚皮",
      "description": "<p>你的身體堅韌使你更能抵抗傷害。</p><p>你的鈍擊、揮砍、穿刺獲得 +2 <strong>抗性</strong>。</p>"
    },
    "Thread the Needle": {
      "name": "Thread the Needle",
      "description": "You concentrate to fire a shot into the swirl of melee. This attack benefits from <strong>Flanking</strong> as if it were a melee attack."
    },
    "True Grit": {
      "name": "True Grit",
      "description": "<p>Your physical tenacity allows you to remain composed while surrounded by foes. Your <strong>Engagement</strong> increases by +1, allowing you to simultaneously engage more adjacent foes.</p>"
    },
    "Tumble Through": {
      "name": "Tumble Through",
      "description": "You can use your athleticism in dangerous situations to escape harm or bypass enemy combatants."
    },
    "Twinned Shot": {
      "name": "Twinned Shot",
      "description": "<p>You prepare two shots to fire simultaneously at a single target.</p>"
    },
    "Unarmed Blocking": {
      "name": "Unarmed Blocking",
      "description": "Your honed reflexes and physical toughness allow you to block enemy blows using your bare arms. While <strong>Unarmed</strong>, half your Toughness score contributes to your <strong>Block</strong> defense."
    },
    "Unarmed Weapon Training": {
      "name": "無武裝訓練",
      "description": "<p>你受過無武裝技巧的教育和訓練。</p><p>當你使用以下分類的近戰武器時，獲得＋１技能加值：<strong>無武裝</strong> 或 <strong>天生</strong>。</p>"
    },
    "Unshakeable Stance": {
      "name": "Unshakeable Stance",
      "description": "You cannot be unvoluntarily Moved or knocked Prone by any action that is not a Critical Success rolled by an enemy or a Critical Failure rolled by yourself."
    },
    "Uppercut": {
      "name": "Uppercut",
      "description": "A two-handed weapon technique where you swing your weapon upwards, making a second Strike with the backswing of your weapon."
    },
    "Voidcaller": {
      "name": "Voidcaller",
      "description": "<p>You are highly skilled in weaving the Rune of Shadow. Spells which use this Rune cause the Entropy condition on Critical Hits.</p><p>The Entropy effect lasts for 1 Round, deals half your Presence score as Void damage to Morale, and applies the Frightened condition.</p>"
    },
    "Vow of Animus": {
      "name": "Vow of Animus",
      "description": "You swear a vow to destroy a specific character or creature. You gain +2 Boons to Strike or Spell attacks against to subject of your vow. You may only swear such a vow against one enemy at a time. Swearing a new vow relinquishes your prior vow."
    },
    "War Mage": {
      "name": "War Mage",
      "description": "<p>Your spellcraft is honed as a weapon of war to thwart the incantations of other magi. You may ask the Gamemaster if you know a Rune capable of countering an enemy spell, even if you do not recognize the spell being cast. You gain +2 Boons to any Counterspell attempt.</p>"
    },
    "Weak Points": {
      "name": "Weak Points",
      "description": "You identify moments of opportunity to strike at an enemy's weak points. When attacking a target that is <strong>Unaware</strong>, <strong>Flanked</strong>, or <strong>Exposed</strong> using Finesse weaponry, you gain +2 damage to any Strike."
    },
    "Wrestler": {
      "name": "Wrestler",
      "description": "You are able to subdue opponents using your physical Strength."
    },
    "Zealous Smite": {
      "name": "狂熱懲擊",
      "description": "<p>你能將正義的力量注入到對已經變得脆弱的敵人的打擊中。</p>"
    }
  }
}